{
  "menus": [
    {
      "section": "Modules",
      "items": [

        {
          "title": "Publications",
          "url": "\/administration\/publication",
          "icone": "fa fa-newspaper-o"
        },
        {
          "title": "Titres des enseignants",
          "url": "\/administration\/titre-enseignant",
          "icone": "fa fa-anchor"
        },
       {
          "title": "Centres de recherche",
          "url": "\/administration\/centre-de-recherche",
          "icone": "fa fa-flask"
        },
        {
          "title": "Disciplines",
          "url": "\/administration\/discipline",
          "icone": "fa fa-legal"
        }
      ,
      {
          "title": "Types de document",
          "url": "\/administration\/type-document",
          "icone": "fa fa-flag-o"
        }
      ,
        {
          "title": "Universités",
          "url": "\/administration\/universite",
          "icone": "fa fa-university"
        }
      ,
        {
          "title": "Pays",
          "url": "\/administration\/pays",
          "icone": "fa fa-globe"
        }

      ]
    }
      ]
    }
  ]
}